<svg width="420" height="435" xmlns="http://www.w3.org/2000/svg">
 <!-- Created with Method Draw - http://github.com/duopixel/Method-Draw/ -->

 <g>
  <title>background</title>
  <rect fill="none" id="canvas_background" height="437" width="422" y="-1" x="-1"/>
  <g display="none" id="canvasGrid">
   <rect fill="url(#gridpattern)" stroke-width="0" y="0" x="0" height="100%" width="100%" id="svg_5"/>
  </g>
 </g>
 <g>
  <title>Layer 1</title>
  <g stroke="null" id="svg_20">
   <path stroke="#000" id="svg_1" d="m3.036206,318.222752l39.300457,-68.775904l39.300561,68.775904l-78.601122,0l0.000104,0z" stroke-width="0" fill="#009dff"/>
   <path stroke="#000" id="svg_2" d="m120.90743,250.508115l-39.300561,68.775904l-39.300561,-68.775904l78.601122,0z" stroke-width="0" fill="#2f7cc4"/>
   <path stroke="#000" id="svg_3" d="m3.036206,318.222752l39.300457,-68.775904l39.300561,68.775904l-78.601018,0z" stroke-width="0" fill="#009dff"/>
   <path stroke="#000" id="svg_4" d="m120.90743,249.174787l-39.300561,68.775904l-39.300561,-68.775904l78.601122,0z" stroke-width="0" fill="#2f7cc4"/>
   <path stroke="#000" id="svg_9" d="m41.244937,251.357316l39.300561,-68.775904l39.300561,68.775904l-78.601122,0z" stroke-width="0" fill="#009dff"/>
   <path stroke="#000" id="svg_10" d="m159.116162,183.642679l-39.300561,68.775904l-39.300457,-68.775904l78.601018,0z" stroke-width="0" fill="#2f7cc4"/>
   <path stroke="#000" id="svg_11" d="m80.120437,183.825112l39.300561,-68.775904l39.300457,68.775904l-78.601018,0z" stroke-width="0" fill="#009dff"/>
   <path stroke="#000" id="svg_13" d="m160.116824,318.222752l39.300561,-68.775904l39.300561,68.775904l-78.601122,0z" stroke-width="0" fill="#009dff"/>
   <path stroke="#000" id="svg_14" d="m277.988152,249.841555l-39.300561,68.775904l-39.300561,-68.775904l78.601122,0z" stroke-width="0" fill="#2f7cc4"/>
   <path stroke="#000" id="svg_15" d="m198.325659,251.357316l39.300561,-68.775904l39.300561,68.775904l-78.601122,0z" stroke-width="0" fill="#009dff"/>
   <path stroke="#000" id="svg_16" d="m316.196987,183.642679l-39.300561,68.775904l-39.300457,-68.775904l78.601018,0z" stroke-width="0" fill="#2f7cc4"/>
   <path stroke="#000" id="svg_17" d="m237.201159,183.825112l39.300561,-68.775904l39.300457,68.775904l-78.601018,0z" stroke-width="0" fill="#009dff"/>
   <path stroke="#000" id="svg_19" d="m317.362889,318.222752l39.300457,-68.775904l39.300561,68.775904l-78.601018,0z" stroke-width="0" fill="#009dff"/>
  </g>
 </g>
</svg>